\relax 
\providecommand\HyperFirstAtBeginDocument{\AtBeginDocument}
\HyperFirstAtBeginDocument{\ifx\hyper@anchor\@undefined
\global\let\oldcontentsline\contentsline
\gdef\contentsline#1#2#3#4{\oldcontentsline{#1}{#2}{#3}}
\global\let\oldnewlabel\newlabel
\gdef\newlabel#1#2{\newlabelxx{#1}#2}
\gdef\newlabelxx#1#2#3#4#5#6{\oldnewlabel{#1}{{#2}{#3}}}
\AtEndDocument{\ifx\hyper@anchor\@undefined
\let\contentsline\oldcontentsline
\let\newlabel\oldnewlabel
\fi}
\fi}
\global\let\hyper@last\relax 
\gdef\HyperFirstAtBeginDocument#1{#1}
\providecommand\HyField@AuxAddToFields[1]{}
\@writefile{lof}{\contentsline {figure}{\numberline {1}{\ignorespaces PACmate BX400 -- \copyright  \nobreakspace  {}Freedom Scientific\nobreakspace  {}\textregistered .}}{1}{Item.1}}
\newlabel{fig:bx400}{{1}{1}{\relax }{Item.1}{}}
\@writefile{lof}{\contentsline {figure}{\numberline {2}{\ignorespaces Stephen Hawking}}{1}{Item.2}}
\newlabel{fig:sh}{{2}{1}{\relax }{Item.2}{}}
\@writefile{lof}{\contentsline {figure}{\numberline {3}{\ignorespaces High Dimensional Hyperspectral Image of a Colon Cell}}{2}{Item.7}}
\newlabel{fig:cc}{{3}{2}{\relax }{Item.7}{}}
\newpmemlabel{^_1}{2}
\@writefile{lof}{\contentsline {figure}{\numberline {4}{\ignorespaces Higgs Boson (ATLAS Preliminary Data)}}{3}{Item.10}}
\newlabel{fig:hb}{{4}{3}{\relax }{Item.10}{}}
\ttl@finishall
